{
    "products": [{
        "id": 1,
        "name": "Oh my deer",
        "price": 14.99,
        "image": "./images/image1.png",
        "description": "Lorem ipsum dolor sit amet, con adipiscing elit, sed diam nonu."
        
    }, {
        "id": 2,
        "name": "Awaken the Hero",
        "price": 17.59,
        "image": "./images/image2.png",
        "description": "Lorem ipsum dolor sit amet, con adipiscing elit, sed diam nonu."
        
    }, {
        "id": 3,
        "name": "Bad Dreams",
        "price": 8.99,
        "image": "./images/image3.png",
        "description": "Lorem ipsum dolor sit amet, con adipiscing elit, sed diam nonu."
        
    }, {
        "id": 4,
        "name": "Ravenna",
        "price": 22.99,
        "image": "./images/image4.png",
        "description": "Lorem ipsum dolor sit amet, con adipiscing elit, sed diam nonu."
        
    }, {
        "id": 5,
        "name": "Caribou",
        "price": 14.99,
        "image": "./images/image5.png",
        "description": "Lorem ipsum dolor sit amet, con adipiscing elit, sed diam nonu."
        
    }, {
        "id": 6,
        "name": "Aqualung",
        "price": 12.29,
        "image": "./images/image6.png",
        "description": "Lorem ipsum dolor sit amet, con adipiscing elit, sed diam nonu."
    }, {
        "id": 7,
        "name": "Strange to ears",
        "price": 10.89,
        "image": "./images/image7.png",
        "description": "Lorem ipsum dolor sit amet, con adipiscing elit, sed diam nonu."
        
    }, {
        "id": 8,
        "name": "Back from Grave",
        "price": 9.19,
        "image": "./images/image8.png",
        "description": "Lorem ipsum dolor sit amet, con adipiscing elit, sed diam nonu."
        
    }, {
        "id": 9,
        "name": "Film Sessions",
        "price": 15.49,
        "image": "./images/image9.png",
        "description": "Lorem ipsum dolor sit amet, con adipiscing elit, sed diam nonu."
        
    }, {
        "id": 10,
        "name": "Time Travel",
        "price": 19.99,
        "image": "./images/image10.png",
        "description": "Lorem ipsum dolor sit amet, con adipiscing elit, sed diam nonu."
    }]
}